{
  "students": [
    {
      "id": 1,
      "name": "Alice Smith",
      "email": "alice.smith@example.com",
      "professor": "prof 1",
      "totalLogins": 42,
      "lastLogin": "2025-07-17T10:00:00Z",
      "videosWatched": 15,
      "qbankAttempted": 8,
      "testsTaken": 3,
      "isActive": true,
      "avgScore": 85,
      "rank": 15
    },
    {
      "id": 2,
      "name": "Bob Johnson",
      "email": "bob.johnson@example.com",
      "professor": "prof 2",
      "totalLogins": 30,
      "lastLogin": "2025-07-15T14:30:00Z",
      "videosWatched": 10,
      "qbankAttempted": 5,
      "testsTaken": 2,
      "isActive": false,
      "avgScore": 72,
      "rank": 45
    },
    {
      "id": 3,
      "name": "Priya Patel",
      "email": "priya.patel@example.com",
      "professor": "prof 3",
      "totalLogins": 55,
      "lastLogin": "2025-07-16T09:00:00Z",
      "videosWatched": 22,
      "qbankAttempted": 12,
      "testsTaken": 4,
      "isActive": true,
      "avgScore": 91,
      "rank": 8
    },
    {
      "id": 4,
      "name": "Rahul Kumar",
      "email": "rahul.kumar@example.com",
      "professor": "prof 4",
      "totalLogins": 28,
      "lastLogin": "2025-07-14T11:00:00Z",
      "videosWatched": 8,
      "qbankAttempted": 3,
      "testsTaken": 1,
      "isActive": false
    },
    {
      "id": 5,
      "name": "Sneha Gupta",
      "email": "sneha.gupta@example.com",
      "professor": "prof 5",
      "totalLogins": 60,
      "lastLogin": "2025-07-13T15:00:00Z",
      "videosWatched": 30,
      "qbankAttempted": 15,
      "testsTaken": 5,
      "isActive": true
    },
    {
      "id": 6,
      "name": "Vikram Singh",
      "email": "vikram.singh@example.com",
      "professor": "prof 2",
      "totalLogins": 35,
      "lastLogin": "2025-07-12T10:00:00Z",
      "videosWatched": 12,
      "qbankAttempted": 7,
      "testsTaken": 2,
      "isActive": false
    },
    {
      "id": 7,
      "name": "John Doe",
      "email": "john.doe@example.com",
      "professor": "prof 1",
      "totalLogins": 50,
      "lastLogin": "2025-07-11T08:00:00Z",
      "videosWatched": 20,
      "qbankAttempted": 10,
      "testsTaken": 4,
      "isActive": true
    },
    {
      "id": 8,
      "name": "Jane Smith",
      "email": "jane.smith@example.com",
      "professor": "prof 2",
      "totalLogins": 32,
      "lastLogin": "2025-07-09T14:00:00Z",
      "videosWatched": 11,
      "qbankAttempted": 6,
      "testsTaken": 2,
      "isActive": false
    },
    {
      "id": 9,
      "name": "Emily Davis",
      "email": "emily.davis@example.com",
      "professor": "prof 1",
      "totalLogins": 48,
      "lastLogin": "2025-07-10T09:30:00Z",
      "videosWatched": 18,
      "qbankAttempted": 9,
      "testsTaken": 3,
      "isActive": true
    },
    {
      "id": 10,
      "name": "Michael Brown",
      "email": "michael.brown@example.com",
      "professor": "prof 2",
      "totalLogins": 29,
      "lastLogin": "2025-07-08T11:15:00Z",
      "videosWatched": 7,
      "qbankAttempted": 4,
      "testsTaken": 1,
      "isActive": false
    }
  ],
  "totalCount": 1200,
  "currentPage": 1,
  "totalPages": 120,
  "hasNext": true,
  "hasPrevious": false
}
